{
  "phrases": {
    "ui": {
      "tabs": {
        "standalone": {
          "flips": "Rzuty monetą",
          "history": "Historia",
          "stats": "Statystki"
        },
        "f4": {
          "flips": "RZUTY MONETĄ",
          "history": "HISTORIA",
          "stats": "STATYSTYKI"
        }
      },
      "flips": {
        "title": ":flips: aktywne rzuty",
        "createFlip": "Swtórz rzut monetą",
        "maxFlipsReached": "Możesz mieć maksymalnie :number: rzutów aktywnych jednocześnie!",
        "row": {
          "join": "Dołącz",
          "delete": "Usuń",
          "cantAfford": "Nie stać Cię aby do tego dołączyć! Potrzebujesz :number:"
        },
        "create": {
          "title": "Stwórz rzut monetą",
          "howMuch": "Ile chciałbyś obstawić?",
          "currency": "Pieniądze",
          "announceCreation": "Ogłosić stworzenie?",
          "announceWinner": "Ogłosić zwycięzce?",
          "timeLimit": {
            "msg": "Limit czasu",
            "time": ":number: min"
          },
          "create": "Stwórz",
          "no": "NIE",
          "yes": "TAK"
        },
        "game": {
           "countdown": "Rzut monetą - rzut za :number:",
           "flipping": "Rzut monetą - rzucam",
           "blue": "Niebieski",
           "red": "Czerwony"
        }
      },
      "history": {
        "title": "Ostatnie :flips: rzutów",
        "won": "WYGRANO",
        "lost": "PRZEGRANO"
      }
    },
    "chat": {
      "done": ":winner: wygrywał :money: w rzucie monetą przeciwko :loser:",
      "created": ":creator: swtorzył rzut monetą za :money:",
      "createdNotification": "Stworzył rzut monetą z ID :id:",
      "won": "Wygrałeś :money: biorąc udział w rzucie monetą!",
      "deleted": {
        "timeLimit": "Twój rzut z ID :id: osiągnał limit czasowy. Zostało Ci zwrócone :money:",
        "user": "Usunąłeś swój rzut z ID :id:. Zostało Ci zwrócone :money:"
      }
    }
  }
}
